なぜR言語を使うのか
…
dat
#> # A tibble: 78,400 × 5
#>        i     x       y     z col    
#>    <int> <dbl>   <dbl> <dbl> <chr>  
#>  1     1 0.864  1.54       1 #010178
#>  2     1 1.42  -1.35       1 #010278
#>  3     1 0.110  0.0473     1 #010378
#>  4     1 1.85   0.703      1 #010478
#>  5     1 1.03  -1.13       1 #010578
#>  6     1 0.623  0.334      1 #010578
#>  7     1 1.92  -0.0699     1 #010678
#>  8     1 0.762 -0.401      1 #010778
#>  9     1 1.46   0.393      1 #010878
#> 10     1 1.39  -0.736      1 #010978
#> # ℹ 78,390 more rows
…
