間違った線形回帰の使い方
…
  dplyr::tibble(
    icol = as.integer(nr),
    r = rgb[, 1],
    g = rgb[, 2],
    b = rgb[, 3],
    a = if (to == "cmyk") rgb[, 4] else 1
  )
}

# こうする
(dat <- decode_icol(nr, to = "rgb"))
#> # A tibble: 786,432 × 5
#>       icol     r     g     b     a
#>      <int> <int> <int> <int> <dbl>
#>  1 -865040   240   204   242     1
#>  2 -733454   242   206   244     1
#>  3 -535820   244   210   247     1
#>  4 -470029   243   211   248     1
#>  5 -600845   243   212   246     1
#>  6 -731664   240   213   244     1
#>  7 -731409   239   214   244     1
#>  8 -730643   237   217   244     1
#>  9 -664336   240   220   245     1
#> 10 -729360   240   222   244     1
#> # ℹ 786,422 more rows
…
