…
dat
#> # A tibble: 7,367 × 4
#>    doc_id      category       title                                        text
#>    <chr>       <fct>          <chr>                                        <chr>
#>  1 se8fMjYzCtd dokujo-tsushin 友人代表のスピーチ、独女はどうこなしている?  " もう…
#>  2 qT3fn1M59E0 dokujo-tsushin ネットで断ち切れない元カレとの縁             " 携帯…
#>  3 GKUXVcgT98l dokujo-tsushin 相次ぐ芸能人の“すっぴん”披露 その時、独女の心境は?…… " 「男…
#>  4 W40lYr546YF dokujo-tsushin ムダな抵抗!? 加齢の現実                      " ヒッ…
#>  5 fk9LpWmkdq5 dokujo-tsushin 税金を払うのは私たちなんですけど!            " 6月…
#>  6 IPvFoBR26YM dokujo-tsushin 読んでみる?描いてみる?大人の女性を癒す絵本の魅力…… " 書店…
#>  7 V0XqBmtTUuG dokujo-tsushin 大人になっても解決しない「お昼休み」という問題…… " 昨年…
#>  8 RneKxNiST74 dokujo-tsushin 結婚しても働くのはなぜ? 既婚女性のつぶやき   " 「彼…
#>  9 dv4RWw390v5 dokujo-tsushin お肌に優しいから安心 紫外線が気になる独女の夏の対策とは?…… " これ…
#> 10 5bQL9ZfJoA5 dokujo-tsushin 初回デートで婚カツ女子がゲンメツする行為って?…… " 合コ…
#> # ℹ 7,357 more rows
```
…
実際、これくらいの規模の文章集合だったら、ただ形態素解析するだけであれば、手元の環境だとgibasaで数秒でできる。

``` r
microbenchmark::microbenchmark(
  gibasa = {
    toks <- gibasa::tokenize(dat, text, doc_id)
  },
  times = 1
)
#> Unit: seconds
#>    expr      min       lq     mean   median       uq      max neval
#>  gibasa 4.762919 4.762919 4.762919 4.762919 4.762919 4.762919     1
toks
#> # A tibble: 4,767,480 × 7
#>    doc_id      category       title           sentence_id token_id token feature
#>    <fct>       <fct>          <chr>                 <int>    <int> <chr> <chr>
#>  1 se8fMjYzCtd dokujo-tsushin 友人代表のスピーチ、独女はど…           1        1 もうすぐ… 副詞,一般,…
#>  2 se8fMjYzCtd dokujo-tsushin 友人代表のスピーチ、独女はど…           1        2 ジューン… 名詞,固有名…
#>  3 se8fMjYzCtd dokujo-tsushin 友人代表のスピーチ、独女はど…           1        3 ・    記号,一般,…
#>  4 se8fMjYzCtd dokujo-tsushin 友人代表のスピーチ、独女はど…           1        4 ブライド… 名詞,一般,…
#>  5 se8fMjYzCtd dokujo-tsushin 友人代表のスピーチ、独女はど…           1        5 と    助詞,格助詞…
#>  6 se8fMjYzCtd dokujo-tsushin 友人代表のスピーチ、独女はど…           1        6 呼ば  動詞,自立,…
#>  7 se8fMjYzCtd dokujo-tsushin 友人代表のスピーチ、独女はど…           1        7 れる  動詞,接尾,…
#>  8 se8fMjYzCtd dokujo-tsushin 友人代表のスピーチ、独女はど…           1        8 6     名詞,数,*…
#>  9 se8fMjYzCtd dokujo-tsushin 友人代表のスピーチ、独女はど…           1        9 月    名詞,一般,…
#> 10 se8fMjYzCtd dokujo-tsushin 友人代表のスピーチ、独女はど…           1       10 。    記号,句点,…
#> # ℹ 4,767,470 more rows
```
…
